CUST_NO;CUSTOMER;CONTACT_FIRST;CONTACT_LAST;PHONE_NO;ADDRESS_LINE1;ADDRESS_LINE2;CITY;STATE_PROVINCE;COUNTRY;POSTAL_CODE;ON_HOLD
1001;Signature Design;Dale J.;Little;(619) 530-2710;15500 Pacific Heights Blvd.;;San Diego;CA;USA;92121;
1002;Dallas Technologies;Glen;Brown;(214) 960-2233;P. O. Box 47000;;Dallas;TX;USA;75205;*
1003;Buttle, Griffith and Co.;James;Buttle;(617) 488-1864;2300 Newbury Street;Suite 101;Boston;MA;USA;02115;
1004;Central Bank;Elizabeth;Brocket;61 211 99 88;66 Lloyd Street;;Manchester;;England;M2 3LA;
1005;DT Systems, LTD.;Tai;Wu;(852) 850 43 98;400 Connaught Road;;Central Hong Kong;;Hong Kong;;
1006;DataServe International;Tomas;Bright;(613) 229 3323;2000 Carling Avenue;Suite 150;Ottawa;ON;Canada;K1V 9G1;
1007;Mrs. Beauvais;;Mrs. Beauvais;;P.O. Box 22743;;Pebble Beach;CA;USA;93953;
1008;Anini Vacation Rentals;Leilani;Briggs;(808) 835-7605;3320 Lawai Road;;Lihue;HI;USA;96766;
1009;Max;Max;;22 01 23;1 Emerald Cove;;Turtle Island;;Fiji;;*
1010;MPM Corporation;Miwako;Miyamoto;3 880 77 19;2-64-7 Sasazuka;;Tokyo;;Japan;150;
1011;Dynamic Intelligence Corp;Victor;Granges;01 221 16 50;Florhofgasse 10;;Zurich;;Switzerland;8005;
1012;3D-Pad Corp.;Michelle;Roche;1 43 60 61;22 Place de la Concorde;;Paris;;France;75008;
1013;Lorenzi Export, Ltd.;Andreas;Lorenzi;02 404 6284;Via Eugenia, 15;;Milan;;Italy;20124;
1014;Dyno Consulting;Greta;Hessels;02 500 5940;Rue Royale 350;;Brussels;;Belgium;1210;
1015;GeoTech Inc.;K.M.;Neppelenbroek;(070) 44 91 18;P.0.Box 702;;Den Haag;;Netherlands;2514;
